{
  "schemaVersion": 1,
  "generatedAt": "2026-07-03T01:06:00.000Z",
  "vaultName": "Capture",
  "profile": "eink-bw",
  "device": {
    "width": 264,
    "height": 176,
    "inches": 2.7,
    "orientation": "landscape",
    "aspectRatio": 1.5,
    "ppi": 117.5,
    "layout": "landscape-compact",
    "page": "articles",
    "limit": 1
  },
  "summary": {
    "think": 9,
    "write": 2,
    "unresolved": 11,
    "candidate": 0,
    "blockedArticles": 4,
    "workflowFiles": 6,
    "workflowStages": 5,
    "remindersDue": 0,
    "remindersUpcoming": 1
  },
  "workflow": {
    "enabled": true,
    "uniqueFiles": 6,
    "stages": []
  },
  "screens": [
    {
      "id": "articles-0",
      "type": "articles",
      "title": "来源笔记",
      "subtitle": "1 / 4",
      "openUri": "obsidian://open?vault=Capture&file=00-Raw%2FExample.md",
      "items": [
        {
          "type": "article",
          "filePath": "00-Raw/Example.md",
          "title": "大一 C7 656宿舍",
          "open": 4,
          "candidate": 0,
          "resolved": 0,
          "think": 3,
          "write": 1,
          "topIssues": [
            {
              "id": "oq_example_write",
              "title": "补充每个人具体的文档经历",
              "lane": "write",
              "status": "open"
            }
          ],
          "cardsUrl": "https://desktop.tailnet.ts.net:48321/api/v1/device-feed?token=TOKEN&profile=eink-bw&page=cards&sourceFile=00-Raw%2FExample.md",
          "openUri": "obsidian://open?vault=Capture&file=00-Raw%2FExample.md"
        }
      ],
      "actions": [
        {
          "id": "viewCards",
          "label": "看卡片",
          "kind": "navigate",
          "page": "cards",
          "sourceFile": "00-Raw/Example.md",
          "cursor": "0",
          "enabled": true
        }
      ]
    }
  ],
  "navigation": {
    "page": "articles",
    "cursor": "0",
    "limit": 1,
    "total": 4,
    "hasPrev": false,
    "hasNext": true,
    "nextCursor": "1"
  },
  "actions": [
    {
      "id": "next",
      "label": "下一篇",
      "kind": "navigate",
      "page": "articles",
      "cursor": "1",
      "enabled": true
    }
  ]
}